Apache Arrow Dataset-Backed Simulation Outputs for mrgsolve • mrgsim.ds
…
dim(out)
. [1] 1446000       4

This includes coercing to different types of objects. We can get the usual R data frames

as_tibble(out)
. # A tibble: 1,446,000 × 4
.       ID  time    CL IPRED
.    <dbl> <dbl> <dbl> <dbl>
.  1     1   0    1.11 0    
.  2     1   0    1.11 0    
.  3     1   0.5  1.11 0.289
.  4     1   1    1.11 0.547
.  5     1   1.5  1.11 0.779
.  6     1   2    1.11 0.985
.  7     1   2.5  1.11 1.17 
.  8     1   3    1.11 1.33 
.  9     1   3.5  1.11 1.47 
. 10     1   4    1.11 1.60 
. # ℹ 1,445,990 more rows
…
dd
. FileSystemDataset (query)
. time: double
. Mean: double
. n: int64
. 
. * Sorted by time [asc]
. See $.data for the source Arrow object

collect(dd)
. # A tibble: 481 × 3
.     time  Mean     n
.    <dbl> <dbl> <int>
.  1   0    0     6000
.  2   0.5  1.11  3000
.  3   1    1.82  3000
.  4   1.5  2.28  3000
.  5   2    2.60  3000
.  6   2.5  2.81  3000
.  7   3    2.96  3000
.  8   3.5  3.06  3000
.  9   4    3.12  3000
. 10   4.5  3.15  3000
. # ℹ 471 more rows
…
