…
dim(out)
. [1] 1446000       4
```

This includes coercing to different types of objects. We can get the
usual R data frames

``` r
as_tibble(out)
. # A tibble: 1,446,000 × 4
.       ID  time    CL IPRED
.    <dbl> <dbl> <dbl> <dbl>
.  1     1   0    1.15 0    
.  2     1   0    1.15 0    
.  3     1   0.5  1.15 0.217
.  4     1   1    1.15 0.417
.  5     1   1.5  1.15 0.600
.  6     1   2    1.15 0.768
.  7     1   2.5  1.15 0.923
.  8     1   3    1.15 1.06 
.  9     1   3.5  1.15 1.19 
. 10     1   4    1.15 1.31 
. # ℹ 1,445,990 more rows
```
…
dd
. FileSystemDataset (query)
. time: double
. Mean: double
. n: int64
. 
. * Sorted by time [asc]
. See $.data for the source Arrow object
```

``` r
collect(dd)
. # A tibble: 481 × 3
.     time  Mean     n
.    <dbl> <dbl> <int>
.  1   0    0     6000
.  2   0.5  1.10  3000
.  3   1    1.80  3000
.  4   1.5  2.25  3000
.  5   2    2.56  3000
.  6   2.5  2.78  3000
.  7   3    2.92  3000
.  8   3.5  3.01  3000
.  9   4    3.07  3000
. 10   4.5  3.10  3000
. # ℹ 471 more rows
```
…
