…
dim(out)
. [1] 1446000       4
```

This includes coercing to different types of objects. We can get the
usual R data frames

``` r
as_tibble(out)
. # A tibble: 1,446,000 × 4
.       ID  time    CL IPRED
.    <dbl> <dbl> <dbl> <dbl>
.  1     1   0   0.938 0    
.  2     1   0   0.938 0    
.  3     1   0.5 0.938 0.342
.  4     1   1   0.938 0.654
.  5     1   1.5 0.938 0.938
.  6     1   2   0.938 1.20 
.  7     1   2.5 0.938 1.43 
.  8     1   3   0.938 1.64 
.  9     1   3.5 0.938 1.83 
. 10     1   4   0.938 2.00 
. # ℹ 1,445,990 more rows
```
…
dd
. FileSystemDataset (query)
. time: double
. Mean: double
. 
. See $.data for the source Arrow object
```

``` r
collect(dd)
. # A tibble: 481 × 2
.     time  Mean
.    <dbl> <dbl>
.  1   0    0   
.  2   0.5  1.08
.  3   1    1.76
.  4   1.5  2.22
.  5   2    2.53
.  6   2.5  2.74
.  7   3    2.88
.  8   3.5  2.98
.  9  16.5  2.17
. 10  17.5  2.08
. # ℹ 471 more rows
```
…
